"","Symbol","DC55H","DC55L","Outcome_IC","fMeasure_IC","Outcome_BPS","fMeasure_BPS","Outcome_BCS","fMeasure_BCS"
"40","SNAP","21.219999","13.15","0",0.901234567901235,"0",0.9609375,"1",0.976744186046512
"131","JNUG","20.5","11.34","0",0.823300970873786,"0",0.901701323251418,"0",0.950819672131147
"141","SYF","40.59","32.220001","1",0.822784810126582,"1",0.941076003415884,"1",0.928104575163399
"54","PYPL","86.32","71.629997","1",0.82258064516129,"1",0.976827094474153,"1",0.903765690376569
"50","JD","50.68","37.751999","1",0.809638554216867,"1",0.903831118060985,"1",0.893433799784715
"67","CZR","14.5","10.48","0",0.785575048732943,"0",0.921867321867322,"1",0.913343965975545
"31","TWTR","36.799999","22.040001","0",0.777777777777778,"1",0.939739413680782,"0",0.948247078464107
"63","SQ","58.459999","36.759998","0",0.772727272727273,"1",0.990556138509969,"1",0.832786885245902
"48","XBI","97.980003","82.360001","1",0.766396462785556,"1",0.935998298958112,"1",0.78620063549705
"12","BABA","206.199997","166.130005","1",0.765799256505576,"1",0.925069380203515,"1",0.93646408839779
"75","BMY","70.050003","58.34","0",0.761973875181422,"1",0.869257950530035,"1",0.833149171270718
"129","XLV","91.790001","78.739998","1",0.745954692556634,"1",0.918157423971377,"1",0.833410672853828
"20","NFLX","333.980011","221.199997","0",0.745098039215686,"1",0.936353340883352,"1",0.835238095238095
"109","NUGT","37.959999","21.25","0",0.743886743886744,"0",0.786279683377309,"1",0.944893460690669
"145","ABBV","125.860001","88.220001","0",0.738362760834671,"0",0.956769596199525,"1",0.831194471865745
"86","VZ","54.77","46.200001","1",0.738166566806471,"1",0.873208975398756,"1",0.850407978241161
"52","JCP","4.75","2.81","0",0.737082066869301,"0",0.841701534170153,"1",0.914695721498804
"144","ATVI","79.629997","63.32","0",0.736842105263158,"0",0.908580780921206,"1",0.825479930191972
"9","TSLA","360.5","244.589996","0",0.731898238747554,"1",0.91455130496961,"1",0.881698685540951
"37","NXPI","125.93","113.379997","0",0.730385164051355,"1",0.937086092715232,"1",0.841399851079672
"153","FTR","9.59","6.65","0",0.729714605484052,"1",0.865450046396536,"0",0.933038999264165
"65","WFT","4.41","2.07","1",0.728789986091794,"1",0.877051540454938,"1",0.89171974522293
"77","SVXY","136.740005","9.53","1",0.725925925925926,"1",0.928198957079823,"1",0.830945558739255
"112","HAL","57.860001","44.209999","1",0.723642172523962,"1",0.931513773060399,"1",0.843995510662177
"134","CTL","19.469999","15.45","0",0.722063037249284,"0",0.857984293193717,"0",0.898798397863818
"150","LVS","79.839996","68.129997","0",0.721985815602837,"1",0.920382165605096,"1",0.892868564118964
"162","DUST","31.459999","19.040001","0",0.717271727172717,"0",0.837606837606838,"1",0.944104447164423
"71","RIG","11.99","8.7","0",0.716009654062751,"0",0.863591105210753,"1",0.912722298221614
"120","VRX","22.860001","14.44","1",0.715477293790547,"1",0.924083769633508,"1",0.877803557617943
"66","CELG","106.669998","84.25","1",0.714396887159533,"1",0.912959381044487,"1",0.836193447737909
"10","VXX","56.5","26.049999","1",0.711711711711712,"1",0.787810383747178,"1",0.96195935383012
"19","EFA","75.269997","66.889999","0",0.711518858307849,"1",0.879916098584164,"1",0.867208672086721
"15","AMD","13.85","9.04","1",0.708121827411167,"1",0.890793475255737,"1",0.892815758980301
"62","XLU","51.299999","47.369999","0",0.707652060170046,"0",0.902147971360382,"1",0.835227272727273
"128","BYD","40.439999","30.620001","0",0.702111024237686,"0",0.881946364390379,"1",0.871111111111111
"133","UAA","18.75","12.5","0",0.701298701298701,"1",0.91683569979716,"0",0.87513572204126
"88","GILD","89.540001","71.870003","0",0.697350069735007,"0",0.888273779567187,"1",0.836185819070905
"163","MO","71.860001","59.07","0",0.696847210994341,"0",0.925441615049323,"1",0.856552294336503
"34","DIA","265.929993","233.199997","0",0.696551724137931,"0",0.91053391053391,"1",0.766880236569739
"157","LB","53.389999","36.720001","0",0.696051423324151,"0",0.889923329682366,"1",0.844444444444444
"115","CVS","83.879997","60.139999","1",0.69204152249135,"1",0.908393285371703,"1",0.807804068078041
"143","KR","31.450001","22.85","0",0.687394957983193,"0",0.898822269807281,"1",0.858856739590685
"70","PBR","14.93","11.86","0",0.68557130942452,"1",0.874043555032372,"0",0.902469135802469
"26","GLD","129.509995","123.580002","0",0.684856753069577,"0",0.889749548153886,"0",0.871318822023047
"116","DAL","60.279999","48.52","1",0.683673469387755,"1",0.903601108033241,"1",0.832162921348315
"81","JNJ","148.139999","122.150002","1",0.683651804670913,"1",0.893851944792974,"1",0.737330754352031
"79","NKE","70.25","62.09","1",0.678725236864772,"1",0.920341394025605,"1",0.820727120768909
"114","TBT","39.860001","35.25","0",0.677713338856669,"1",0.865979381443299,"1",0.932301740812379
"102","WLL","36.5","21.379999","1",0.676587301587302,"1",0.918067787563384,"0",0.902534808996787
"3","EEM","52.080002","45.040001","0",0.676447876447876,"1",0.883660806618407,"0",0.850647079398391
"11","HYG","87.900002","84.07","1",0.675364543361474,"1",0.860189573459716,"1",0.872333651703279
"78","DIS","112.529999","97.699997","0",0.674937965260546,"0",0.904356792987884,"1",0.810763888888889
"22","UVXY","30.18","8.78","0",0.674846625766871,"0",0.7125,"1",0.97627606038821
"96","BIDU","270.579987","207.740005","1",0.674176776429809,"1",0.910079051383399,"1",0.879486210804684
"105","GME","18.27","12.2","1",0.673640167364017,"1",0.872620790629575,"1",0.904682274247492
"108","DWDP","77.080002","61.27","0",0.672619047619048,"0",0.890918580375783,"1",0.822832980972516
"7","BAC","33.049999","28.75","1",0.671140939597315,"1",0.900080364318243,"0",0.887569832402235
"136","MS","59.380001","50.02","0",0.667207792207792,"1",0.897553516819572,"0",0.866959064327485
"69","STZ","231.830002","204.600006","0",0.666666666666667,"1",0.928,"0",0.813714285714286
"104","SBUX","61.939999","53.560001","1",0.666666666666667,"1",0.895897435897436,"1",0.871794871794872
"97","CLF","9.15","6.3","0",0.66612641815235,"0",0.889891696750902,"1",0.906765207504264
"92","APC","63.049999","53.849998","0",0.666100254885302,"0",0.916456970306996,"0",0.836158192090396
"156","XLP","58.950001","50.810001","1",0.665983606557377,"1",0.89992834965369,"1",0.751173708920188
"100","OIH","29.530001","22.860001","0",0.665064102564103,"0",0.900931414055885,"1",0.851983231215737
"89","MGM","38.41","32.139999","1",0.664710198092443,"0",0.877281662454367,"1",0.814910858995138
"87","ORCL","53.48","44.040001","1",0.663951120162933,"1",0.886112445939452,"1",0.771943273284784
"25","INTC","53.779999","42.040001","0",0.663442940038685,"1",0.885330578512397,"0",0.831955922865014
"45","X","47.639999","30.91","0",0.661406025824964,"0",0.930735930735931,"1",0.89623507805326
"16","GE","17.360001","12.73","0",0.660430308699719,"0",0.891131498470948,"1",0.848744641763625
"43","XLE","78.389999","64.449997","1",0.659722222222222,"0",0.88476821192053,"1",0.852541159627774
"121","WDC","106.959999","77.900002","0",0.658415841584159,"0",0.929815303430079,"1",0.849586776859504
"159","UNH","250.789993","208.479996","1",0.656996587030717,"1",0.935141242937853,"1",0.811076373380974
"95","KO","48.619999","42.189999","1",0.654850746268657,"0",0.858585858585859,"1",0.806017418844022
"93","HD","207.610001","170.419998","0",0.653846153846154,"1",0.92143684820394,"1",0.786122090469916
"146","WMB","33.669998","24","1",0.653014789533561,"1",0.901283058392249,"1",0.869283690813436
"59","V","126.879997","111.019997","1",0.648648648648649,"1",0.936659329909513,"1",0.791505791505792
"32","C","80.699997","66.550003","1",0.648135593220339,"0",0.898694516971279,"1",0.851758793969849
"148","FDX","274.100006","226.199997","1",0.643131235610131,"1",0.905345757724375,"1",0.810136157337368
"1","SPY","286.579987","252.919998","1",0.641686182669789,"1",0.896190476190476,"1",0.797989949748744
"101","BP","44.619999","36.150002","1",0.638678596008259,"1",0.865990389749066,"1",0.841684598831847
"8","MU","63.419998","37.52","1",0.63817097415507,"1",0.909090909090909,"1",0.857464366091523
"41","XOM","89.300003","72.160004","1",0.637801831806828,"1",0.86935136796803,"1",0.88
"68","FEZ","44.23","38.75","1",0.63768115942029,"1",0.850889192886457,"1",0.866014174822815
"90","XLK","71.339996","60.970001","0",0.634146341463415,"0",0.887750349324639,"0",0.69446098868374
"123","YNDX","44.490002","33.799999","0",0.633333333333333,"0",0.915846016114593,"1",0.83510011778563
"23","T","39.290001","34.439999","0",0.633210332103321,"0",0.818703384968445,"1",0.824659231722429
"42","GDX","24.860001","20.84","0",0.632034632034632,"0",0.840613248481342,"1",0.875073659398939
"147","AKS","6.5","4.26","1",0.630813953488372,"1",0.869868995633188,"1",0.896077870025766
"154","ANF","28.24","19.15","0",0.630593132154006,"1",0.852756892230576,"0",0.868642745709828
"113","CRM","128.869995","102.370003","1",0.625119846596357,"1",0.913973384030418,"1",0.757950530035336
"17","MSFT","97.239998","83.830002","0",0.624806201550388,"1",0.900335409678965,"0",0.821512081060016
"132","NOK","5.96","4.75","1",0.623481781376518,"1",0.86483064260842,"1",0.894188596491228
"72","CVX","132.669998","108.019997","1",0.622658340767172,"1",0.854575163398693,"1",0.825936199722608
"82","AMAT","62.400002","45.130001","1",0.620915032679739,"1",0.915366913832779,"1",0.80343716433942
"152","HIG","59.200001","49.669998","0",0.618350038550501,"0",0.896284829721362,"1",0.845262440354465
"127","NBR","8.5","6.09","0",0.617220801364024,"1",0.871947587849911,"1",0.886438152011923
"111","ADBE","231.339996","179.339996","0",0.616690240452617,"1",0.911047345767575,"0",0.752709359605911
"57","CMCSA","44","32.740002","0",0.616298811544991,"0",0.909914204003813,"1",0.762339278307756
"36","BA","371.600006","311.170013","0",0.615899581589958,"0",0.889374090247453,"0",0.81484375
"135","AAL","58.459999","46.330002","0",0.615611192930781,"0",0.917609046849758,"1",0.863260936066075
"24","USO","13.3","11.65","0",0.611881188118812,"1",0.903856903297932,"0",0.865516118528167
"38","GM","44.48","34.5","1",0.611632270168856,"1",0.901303538175047,"1",0.870084619213539
"130","FOXA","39.139999","34.119999","0",0.610202117420597,"1",0.885041925885853,"0",0.839245283018868
"18","XLF","30.33","26.549999","0",0.609282700421941,"0",0.896221662468514,"1",0.810790835181079
"84","ABX","15.52","11.07","0",0.609001406469761,"1",0.882078225335668,"1",0.88870523415978
"56","FCX","20.25","16.51","0",0.608196721311476,"0",0.869694271297121,"0",0.884592145015106
"30","TWX","97.809998","91.169998","0",0.606896551724138,"0",0.895429899302866,"0",0.822973464194838
"139","GLW","34.830002","26.309999","0",0.605196982397318,"0",0.858125992588671,"1",0.865309038942479
"124","TGT","78.699997","67.440002","0",0.601063829787234,"1",0.854051054384018,"0",0.827819041188386
"51","F","12.09","10.14","0",0.6,"1",0.870977266017124,"0",0.866345574954846
"83","WMT","109.980003","84.839996","1",0.598603839441536,"1",0.879958246346555,"1",0.831187936741449
"98","MCD","178.699997","146.839996","1",0.597701149425287,"1",0.893564962074872,"1",0.788643533123028
"106","SLB","80.349998","62.02","1",0.596026490066225,"1",0.894529046813311,"1",0.843373493975904
"94","CHK","4.18","2.53","0",0.59596713965646,"0",0.848177496038035,"1",0.896976483762598
"80","TEVA","21.84","16.35","1",0.595924104005622,"1",0.864113475177305,"1",0.870707673932517
"47","CSCO","46.16","37.349998","0",0.592920353982301,"1",0.874194452227515,"0",0.821747572815534
"4","FB","195.320007","149.020004","1",0.58695652173913,"1",0.931666666666667,"1",0.744186046511628
"117","VALE","14.67","11.93","1",0.58684985279686,"0",0.867477203647416,"1",0.860349127182045
"158","GBX","54.150002","44.75","0",0.586236193712829,"0",0.887475808681227,"1",0.876351351351351
"151","KMI","19.709999","14.69","0",0.586206896551724,"0",0.890747516989022,"1",0.876435461644465
"155","PG","91.919998","75.809998","1",0.585152838427948,"1",0.871807711567351,"1",0.782702702702703
"29","TLT","124.199997","116.510002","0",0.584474885844749,"1",0.86533733952472,"0",0.857593937480265
"140","XRT","49.09","42.700001","0",0.584172661870504,"1",0.89752306945119,"1",0.771720014069645
"49","QCOM","68.900002","53.07","1",0.581320450885668,"1",0.877499295972965,"1",0.834732085216269
"76","MRK","62.139999","52.830002","1",0.577516531961793,"1",0.859541984732824,"1",0.845496383957922
"53","CL","77.550003","67.860001","1",0.577494692144374,"1",0.846432889963724,"1",0.784371544415776
"103","PFE","39.43","33.200001","1",0.577476714648603,"1",0.846804014791336,"1",0.836054421768707
"44","SLV","16.639999","15.19","0",0.574677786201668,"0",0.856674856674857,"1",0.881758764111705
"21","EWZ","47.849998","41.84","0",0.570666666666667,"0",0.859246672330784,"1",0.849099836333879
"13","XOP","40.200001","30.98","0",0.570403587443946,"1",0.872657111356119,"0",0.841666666666667
"55","GS","275.309998","239.289993","0",0.563868613138686,"1",0.893347412882788,"0",0.853788687299893
"14","NVDA","254.5","204","0",0.561056105610561,"1",0.929145728643216,"0",0.829247311827957
"85","LOW","108.980003","83.080002","1",0.560143626570916,"1",0.906803594351733,"1",0.811066618128868
"122","SPXU","13.07","9.19","1",0.56,"0",0.696165191740413,"1",0.961902188597676
"74","KRE","65.330002","58.209999","1",0.558452481076535,"0",0.863562533838657,"1",0.823801652892562
"28","XLI","80.959999","71.489998","0",0.553398058252427,"0",0.892606060606061,"1",0.734921439432337
"126","AVGO","273.850006","224.899994","1",0.550761421319797,"1",0.949903127594797,"1",0.68859649122807
"2","QQQ","175.210007","150.130005","0",0.550724637681159,"0",0.909926470588235,"0",0.688775510204082
"161","COG","28.780001","22.6","0",0.547252747252747,"0",0.895476616406849,"1",0.827699917559769
"46","IBM","168.720001","144.399994","0",0.54653937947494,"1",0.86199460916442,"0",0.805694497883802
"60","DE","175.259995","142.729996","1",0.543001686340641,"1",0.922102299389958,"1",0.755996691480562
"33","JPM","119.330002","103.980003","0",0.54,"0",0.86837965390666,"1",0.747899159663866
"138","NEM","42.040001","35.98","0",0.53781512605042,"1",0.873842222931971,"1",0.863919359620516
"110","HES","54.52","40.369999","0",0.53693407466243,"1",0.870475113122172,"0",0.863990040460629
"35","WFC","66.309998","50.419998","1",0.535460992907801,"1",0.873971875829132,"1",0.78840782122905
"118","MA","183.729996","156.800003","0",0.534675615212528,"1",0.941635929702756,"0",0.750713063320023
"125","USB","58.5","49.029999","0",0.533795493934142,"0",0.895357590966123,"1",0.734205607476636
"137","COP","63","50.18","0",0.530351437699681,"1",0.898613753737429,"0",0.866161616161616
"6","AAPL","183.5","150.240005","0",0.528528528528528,"1",0.944406314344544,"0",0.744893111638955
"5","IWM","160.630005","142.5","0",0.527220630372493,"1",0.863327460357413,"1",0.751224289911851
"73","IYR","79.260002","71.269997","1",0.525505293551492,"1",0.860258686279483,"1",0.830463069269039
"142","TXN","120.75","96.989998","1",0.523949169110459,"1",0.906718221362977,"1",0.831168831168831
"64","CAT","173.100006","138.050003","1",0.520811099252935,"1",0.865267074142971,"1",0.839119074281448
"61","MRO","19.52","14.27","0",0.516791044776119,"1",0.884677855982675,"1",0.834163701067616
"27","FXI","54","44.599998","1",0.515463917525773,"0",0.898899411313028,"1",0.849856321839081
"58","BX","37.52","30.129999","0",0.512428298279159,"0",0.912261278715749,"1",0.826404084609774
"39","SMH","114.550003","93.879997","0",0.510971786833856,"1",0.904223968565815,"0",0.796009975062344
"91","LEN","72.169998","55.48","0",0.510008703220192,"0",0.88074369189907,"1",0.819546247818499
"99","M","31.040001","22.469999","0",0.491739552964043,"1",0.846903669724771,"0",0.826044064452483
"160","HON","165.130005","140.169998","0",0.486916951080774,"0",0.909132212630622,"1",0.716923076923077
"107","WYNN","203.630005","156.539993","0",0.469406392694064,"0",0.904885654885655,"1",0.855254001391788
"119","EBAY","46.990002","38.330002","1",0.462522851919561,"1",0.88498727735369,"1",0.772393538913363
"149","AXP","102.120003","87.540001","0",0.427947598253275,"0",0.858964143426295,"1",0.809403254972875
